{
	"info": {
		"_postman_id": "8fa1eb04-38ca-46b0-bf38-d6c6f326e94d",
		"name": "pruebas",
		"schema": "https://schema.getpostman.com/json/collection/v2.1.0/collection.json",
		"_exporter_id": "26870458",
		"_collection_link": "https://www.postman.com/cryosat-cosmonaut-25440037/workspace/ninjachallenge/collection/26870458-8fa1eb04-38ca-46b0-bf38-d6c6f326e94d?action=share&source=collection_link&creator=26870458"
	},
	"item": [
		{
			"name": "Flow",
			"item": [
				{
					"name": "http://localhost:8080/users/getusers",
					"request": {
						"method": "GET",
						"header": [
							{
								"key": "Content-Type",
								"value": "application/json",
								"type": "text"
							}
						],
						"url": {
							"raw": "http://localhost:8080/users/getusers",
							"protocol": "http",
							"host": [
								"localhost"
							],
							"port": "8080",
							"path": [
								"users",
								"getusers"
							]
						}
					},
					"response": [
						{
							"name": "http://localhost:8080/users/getusers",
							"originalRequest": {
								"method": "GET",
								"header": [
									{
										"key": "Content-Type",
										"value": "application/json",
										"type": "text"
									}
								],
								"url": {
									"raw": "http://localhost:8080/users/getusers",
									"protocol": "http",
									"host": [
										"localhost"
									],
									"port": "8080",
									"path": [
										"users",
										"getusers"
									]
								}
							},
							"status": "OK",
							"code": 200,
							"_postman_previewlanguage": "json",
							"header": [
								{
									"key": "Content-Type",
									"value": "application/json"
								},
								{
									"key": "Transfer-Encoding",
									"value": "chunked"
								},
								{
									"key": "Date",
									"value": "Wed, 16 Aug 2023 05:05:12 GMT"
								},
								{
									"key": "Keep-Alive",
									"value": "timeout=60"
								},
								{
									"key": "Connection",
									"value": "keep-alive"
								}
							],
							"cookie": [],
							"body": "[\n    {\n        \"name\": \"Devon Lopez\",\n        \"email\": \"dlopez@gmail.com\",\n        \"birthDate\": \"2000-04-02T00:00:00\",\n        \"address\": {\n            \"street\": \"456 Main St\",\n            \"state\": \"CA\",\n            \"city\": \"Los Angeles\",\n            \"country\": \"USA\",\n            \"zip\": \"90001\"\n        }\n    }\n]"
						}
					]
				},
				{
					"name": "http://localhost:8080/users/createUsers",
					"request": {
						"method": "POST",
						"header": [
							{
								"key": "Content-Type",
								"value": "application/json",
								"type": "text"
							}
						],
						"body": {
							"mode": "raw",
							"raw": "{\r\n  \"name\": \"Devon Lopez\",\r\n  \"email\": \"dlopez@gmail.com\",\r\n  \"birthDate\": \"2000-04-02T00:00:00\",\r\n  \"address\": {\r\n    \"street\": \"456 Main St\",\r\n    \"state\": \"CA\",\r\n    \"city\": \"Los Angeles\",\r\n    \"country\": \"USA\",\r\n    \"zip\": \"90001\"\r\n  }\r\n}"
						},
						"url": {
							"raw": "http://localhost:8080/users/createUsers",
							"protocol": "http",
							"host": [
								"localhost"
							],
							"port": "8080",
							"path": [
								"users",
								"createUsers"
							]
						}
					},
					"response": [
						{
							"name": "http://localhost:8080/users/createUsers",
							"originalRequest": {
								"method": "POST",
								"header": [
									{
										"key": "Content-Type",
										"value": "application/json",
										"type": "text"
									}
								],
								"body": {
									"mode": "raw",
									"raw": "{\r\n  \"name\": \"Devon Lopez\",\r\n  \"email\": \"dlopez@gmail.com\",\r\n  \"birthDate\": \"2000-04-02T00:00:00\",\r\n  \"address\": {\r\n    \"street\": \"456 Main St\",\r\n    \"state\": \"CA\",\r\n    \"city\": \"Los Angeles\",\r\n    \"country\": \"USA\",\r\n    \"zip\": \"90001\"\r\n  }\r\n}"
								},
								"url": {
									"raw": "http://localhost:8080/users/createUsers",
									"protocol": "http",
									"host": [
										"localhost"
									],
									"port": "8080",
									"path": [
										"users",
										"createUsers"
									]
								}
							},
							"status": "Created",
							"code": 201,
							"_postman_previewlanguage": "json",
							"header": [
								{
									"key": "Content-Type",
									"value": "application/json"
								},
								{
									"key": "Transfer-Encoding",
									"value": "chunked"
								},
								{
									"key": "Date",
									"value": "Wed, 16 Aug 2023 05:05:07 GMT"
								},
								{
									"key": "Keep-Alive",
									"value": "timeout=60"
								},
								{
									"key": "Connection",
									"value": "keep-alive"
								}
							],
							"cookie": [],
							"body": "{\n    \"name\": \"Devon Lopez\",\n    \"email\": \"dlopez@gmail.com\",\n    \"birthDate\": \"2000-04-02T00:00:00\",\n    \"address\": {\n        \"street\": \"456 Main St\",\n        \"state\": \"CA\",\n        \"city\": \"Los Angeles\",\n        \"country\": \"USA\",\n        \"zip\": \"90001\"\n    }\n}"
						}
					]
				},
				{
					"name": "http://localhost:8080/users/getusersById/1 ok",
					"request": {
						"method": "GET",
						"header": [],
						"url": {
							"raw": "http://localhost:8080/users/getusersById/1",
							"protocol": "http",
							"host": [
								"localhost"
							],
							"port": "8080",
							"path": [
								"users",
								"getusersById",
								"1"
							]
						}
					},
					"response": [
						{
							"name": "http://localhost:8080/users/getusersById/2",
							"originalRequest": {
								"method": "GET",
								"header": [],
								"url": {
									"raw": "http://localhost:8080/users/getusersById/1",
									"protocol": "http",
									"host": [
										"localhost"
									],
									"port": "8080",
									"path": [
										"users",
										"getusersById",
										"1"
									]
								}
							},
							"status": "OK",
							"code": 200,
							"_postman_previewlanguage": "json",
							"header": [
								{
									"key": "Content-Type",
									"value": "application/json"
								},
								{
									"key": "Transfer-Encoding",
									"value": "chunked"
								},
								{
									"key": "Date",
									"value": "Wed, 16 Aug 2023 04:53:57 GMT"
								},
								{
									"key": "Keep-Alive",
									"value": "timeout=60"
								},
								{
									"key": "Connection",
									"value": "keep-alive"
								}
							],
							"cookie": [],
							"body": "{\n    \"name\": \"Devon Lopez\",\n    \"email\": \"dlopez@gmail.com\",\n    \"birthDate\": \"2000-04-02T00:00:00\",\n    \"address\": {\n        \"street\": \"456 Main St\",\n        \"state\": \"CA\",\n        \"city\": \"Los Angeles\",\n        \"country\": \"USA\",\n        \"zip\": \"90001\"\n    }\n}"
						}
					]
				},
				{
					"name": "http://localhost:8080/users/updateUsersById/1",
					"request": {
						"method": "PUT",
						"header": [
							{
								"key": "Content-Type",
								"value": "application/json",
								"type": "text"
							}
						],
						"body": {
							"mode": "raw",
							"raw": "{\r\n    \"name\": \"Nuevo Nombre\",\r\n    \"email\": \"nuevo@email.com\",\r\n    \"birthDate\": \"1990-01-01T00:00:00\",\r\n    \"address\": {\r\n        \"street\": \"Nueva Calle\",\r\n        \"state\": \"Nuevo Estado\",\r\n        \"city\": \"Nueva Ciudad\",\r\n        \"country\": \"Nuevo País\",\r\n        \"zip\": \"12345\"\r\n    }\r\n}"
						},
						"url": {
							"raw": "http://localhost:8080/users/updateUsersById/1",
							"protocol": "http",
							"host": [
								"localhost"
							],
							"port": "8080",
							"path": [
								"users",
								"updateUsersById",
								"1"
							]
						}
					},
					"response": [
						{
							"name": "http://localhost:8080/users/updateUsersById/1",
							"originalRequest": {
								"method": "PUT",
								"header": [
									{
										"key": "Content-Type",
										"value": "application/json",
										"type": "text"
									}
								],
								"body": {
									"mode": "raw",
									"raw": "{\r\n    \"name\": \"Nuevo Nombre\",\r\n    \"email\": \"nuevo@email.com\",\r\n    \"birthDate\": \"1990-01-01T00:00:00\",\r\n    \"address\": {\r\n        \"street\": \"Nueva Calle\",\r\n        \"state\": \"Nuevo Estado\",\r\n        \"city\": \"Nueva Ciudad\",\r\n        \"country\": \"Nuevo País\",\r\n        \"zip\": \"12345\"\r\n    }\r\n}"
								},
								"url": {
									"raw": "http://localhost:8080/users/updateUsersById/1",
									"protocol": "http",
									"host": [
										"localhost"
									],
									"port": "8080",
									"path": [
										"users",
										"updateUsersById",
										"1"
									]
								}
							},
							"status": "OK",
							"code": 200,
							"_postman_previewlanguage": "json",
							"header": [
								{
									"key": "Content-Type",
									"value": "application/json"
								},
								{
									"key": "Transfer-Encoding",
									"value": "chunked"
								},
								{
									"key": "Date",
									"value": "Wed, 16 Aug 2023 04:56:17 GMT"
								},
								{
									"key": "Keep-Alive",
									"value": "timeout=60"
								},
								{
									"key": "Connection",
									"value": "keep-alive"
								}
							],
							"cookie": [],
							"body": "{\n    \"name\": \"Nuevo Nombre\",\n    \"email\": \"nuevo@email.com\",\n    \"birthDate\": \"1990-01-01T00:00:00\",\n    \"address\": {\n        \"street\": \"Nueva Calle\",\n        \"state\": \"Nuevo Estado\",\n        \"city\": \"Nueva Ciudad\",\n        \"country\": \"Nuevo País\",\n        \"zip\": \"12345\"\n    }\n}"
						}
					]
				},
				{
					"name": "http://localhost:8080/users/deleteUsersById/1",
					"request": {
						"method": "DELETE",
						"header": [],
						"url": {
							"raw": "http://localhost:8080/users/deleteUsersById/1",
							"protocol": "http",
							"host": [
								"localhost"
							],
							"port": "8080",
							"path": [
								"users",
								"deleteUsersById",
								"1"
							]
						}
					},
					"response": [
						{
							"name": "http://localhost:8080/users/deleteUsersById/2",
							"originalRequest": {
								"method": "DELETE",
								"header": [],
								"url": {
									"raw": "http://localhost:8080/users/deleteUsersById/1",
									"protocol": "http",
									"host": [
										"localhost"
									],
									"port": "8080",
									"path": [
										"users",
										"deleteUsersById",
										"1"
									]
								}
							},
							"status": "OK",
							"code": 200,
							"_postman_previewlanguage": "plain",
							"header": [
								{
									"key": "Content-Length",
									"value": "0"
								},
								{
									"key": "Date",
									"value": "Wed, 16 Aug 2023 04:57:52 GMT"
								},
								{
									"key": "Keep-Alive",
									"value": "timeout=60"
								},
								{
									"key": "Connection",
									"value": "keep-alive"
								}
							],
							"cookie": [],
							"body": null
						}
					]
				}
			]
		},
		{
			"name": "BadResponse",
			"item": [
				{
					"name": "http://localhost:8080/users/createUsers not allowed",
					"request": {
						"method": "POST",
						"header": [
							{
								"key": "Content-Type",
								"value": "application/json",
								"type": "text"
							}
						],
						"body": {
							"mode": "raw",
							"raw": "{\r\n  \"nombre\": \"Devon\",\r\n  \"apellido\": \"Jones\",\r\n  \"correo\": \"dlopez@gmail.com\"\r\n}"
						},
						"url": {
							"raw": "http://localhost:8080/users/createUsers",
							"protocol": "http",
							"host": [
								"localhost"
							],
							"port": "8080",
							"path": [
								"users",
								"createUsers"
							]
						}
					},
					"response": [
						{
							"name": "http://localhost:8080/users/createUsers Copy",
							"originalRequest": {
								"method": "POST",
								"header": [
									{
										"key": "Content-Type",
										"value": "application/json",
										"type": "text"
									}
								],
								"body": {
									"mode": "raw",
									"raw": "{\r\n  \"nombre\": \"Devon\",\r\n  \"apellido\": \"Jones\",\r\n  \"correo\": \"dlopez@gmail.com\"\r\n}"
								},
								"url": {
									"raw": "http://localhost:8080/users/createUsers",
									"protocol": "http",
									"host": [
										"localhost"
									],
									"port": "8080",
									"path": [
										"users",
										"createUsers"
									]
								}
							},
							"status": "Method Not Allowed",
							"code": 405,
							"_postman_previewlanguage": "plain",
							"header": [
								{
									"key": "Content-Length",
									"value": "0"
								},
								{
									"key": "Date",
									"value": "Wed, 16 Aug 2023 04:51:43 GMT"
								},
								{
									"key": "Keep-Alive",
									"value": "timeout=60"
								},
								{
									"key": "Connection",
									"value": "keep-alive"
								}
							],
							"cookie": [],
							"body": null
						}
					]
				},
				{
					"name": "http://localhost:8080/users/getusersById/1 Invalid UserId",
					"request": {
						"method": "GET",
						"header": [],
						"url": {
							"raw": "http://localhost:8080/users/getusersById/p",
							"protocol": "http",
							"host": [
								"localhost"
							],
							"port": "8080",
							"path": [
								"users",
								"getusersById",
								"p"
							]
						}
					},
					"response": [
						{
							"name": "http://localhost:8080/users/getusersById/1 ok Copy",
							"originalRequest": {
								"method": "GET",
								"header": [],
								"url": {
									"raw": "http://localhost:8080/users/getusersById/p",
									"protocol": "http",
									"host": [
										"localhost"
									],
									"port": "8080",
									"path": [
										"users",
										"getusersById",
										"p"
									]
								}
							},
							"status": "Bad Request",
							"code": 400,
							"_postman_previewlanguage": "json",
							"header": [
								{
									"key": "Content-Type",
									"value": "application/json"
								},
								{
									"key": "Transfer-Encoding",
									"value": "chunked"
								},
								{
									"key": "Date",
									"value": "Wed, 16 Aug 2023 04:54:35 GMT"
								},
								{
									"key": "Connection",
									"value": "close"
								}
							],
							"cookie": [],
							"body": "{\n    \"timestamp\": \"2023-08-16T04:54:35.200+0000\",\n    \"status\": 400,\n    \"error\": \"Bad Request\",\n    \"path\": \"/users/getusersById/p\"\n}"
						}
					]
				},
				{
					"name": "http://localhost:8080/users/getusersById/1 User NotFound",
					"request": {
						"method": "GET",
						"header": [],
						"url": {
							"raw": "http://localhost:8080/users/getusersById/999",
							"protocol": "http",
							"host": [
								"localhost"
							],
							"port": "8080",
							"path": [
								"users",
								"getusersById",
								"999"
							]
						}
					},
					"response": [
						{
							"name": "http://localhost:8080/users/getusersById/1 Invalid UserId Copy",
							"originalRequest": {
								"method": "GET",
								"header": [],
								"url": {
									"raw": "http://localhost:8080/users/getusersById/999",
									"protocol": "http",
									"host": [
										"localhost"
									],
									"port": "8080",
									"path": [
										"users",
										"getusersById",
										"999"
									]
								}
							},
							"status": "Not Found",
							"code": 404,
							"_postman_previewlanguage": "plain",
							"header": [
								{
									"key": "Content-Length",
									"value": "0"
								},
								{
									"key": "Date",
									"value": "Wed, 16 Aug 2023 04:55:20 GMT"
								},
								{
									"key": "Keep-Alive",
									"value": "timeout=60"
								},
								{
									"key": "Connection",
									"value": "keep-alive"
								}
							],
							"cookie": [],
							"body": null
						}
					]
				},
				{
					"name": "http://localhost:8080/users/updateUsersById/p invalid UserId",
					"request": {
						"method": "PUT",
						"header": [
							{
								"key": "Content-Type",
								"value": "application/json",
								"type": "text"
							}
						],
						"body": {
							"mode": "raw",
							"raw": "{\r\n    \"name\": \"Nuevo Nombre\",\r\n    \"email\": \"nuevo@email.com\",\r\n    \"birthDate\": \"1990-01-01T00:00:00\",\r\n    \"address\": {\r\n        \"street\": \"Nueva Calle\",\r\n        \"state\": \"Nuevo Estado\",\r\n        \"city\": \"Nueva Ciudad\",\r\n        \"country\": \"Nuevo País\",\r\n        \"zip\": \"12345\"\r\n    }\r\n}"
						},
						"url": {
							"raw": "http://localhost:8080/users/updateUsersById/p",
							"protocol": "http",
							"host": [
								"localhost"
							],
							"port": "8080",
							"path": [
								"users",
								"updateUsersById",
								"p"
							]
						}
					},
					"response": [
						{
							"name": "http://localhost:8080/users/updateUsersById/1 Copy",
							"originalRequest": {
								"method": "PUT",
								"header": [
									{
										"key": "Content-Type",
										"value": "application/json",
										"type": "text"
									}
								],
								"body": {
									"mode": "raw",
									"raw": "{\r\n    \"name\": \"Nuevo Nombre\",\r\n    \"email\": \"nuevo@email.com\",\r\n    \"birthDate\": \"1990-01-01T00:00:00\",\r\n    \"address\": {\r\n        \"street\": \"Nueva Calle\",\r\n        \"state\": \"Nuevo Estado\",\r\n        \"city\": \"Nueva Ciudad\",\r\n        \"country\": \"Nuevo País\",\r\n        \"zip\": \"12345\"\r\n    }\r\n}"
								},
								"url": {
									"raw": "http://localhost:8080/users/updateUsersById/p",
									"protocol": "http",
									"host": [
										"localhost"
									],
									"port": "8080",
									"path": [
										"users",
										"updateUsersById",
										"p"
									]
								}
							},
							"status": "Bad Request",
							"code": 400,
							"_postman_previewlanguage": "json",
							"header": [
								{
									"key": "Content-Type",
									"value": "application/json"
								},
								{
									"key": "Transfer-Encoding",
									"value": "chunked"
								},
								{
									"key": "Date",
									"value": "Wed, 16 Aug 2023 04:56:49 GMT"
								},
								{
									"key": "Connection",
									"value": "close"
								}
							],
							"cookie": [],
							"body": "{\n    \"timestamp\": \"2023-08-16T04:56:49.940+0000\",\n    \"status\": 400,\n    \"error\": \"Bad Request\",\n    \"path\": \"/users/updateUsersById/p\"\n}"
						}
					]
				},
				{
					"name": "http://localhost:8080/users/updateUsersById/999 userNotFound",
					"request": {
						"method": "PUT",
						"header": [
							{
								"key": "Content-Type",
								"value": "application/json",
								"type": "text"
							}
						],
						"body": {
							"mode": "raw",
							"raw": "{\r\n    \"name\": \"Nuevo Nombre\",\r\n    \"email\": \"nuevo@email.com\",\r\n    \"birthDate\": \"1990-01-01T00:00:00\",\r\n    \"address\": {\r\n        \"street\": \"Nueva Calle\",\r\n        \"state\": \"Nuevo Estado\",\r\n        \"city\": \"Nueva Ciudad\",\r\n        \"country\": \"Nuevo País\",\r\n        \"zip\": \"12345\"\r\n    }\r\n}"
						},
						"url": {
							"raw": "http://localhost:8080/users/updateUsersById/999",
							"protocol": "http",
							"host": [
								"localhost"
							],
							"port": "8080",
							"path": [
								"users",
								"updateUsersById",
								"999"
							]
						}
					},
					"response": [
						{
							"name": "http://localhost:8080/users/updateUsersById/p invalid UserId Copy",
							"originalRequest": {
								"method": "PUT",
								"header": [
									{
										"key": "Content-Type",
										"value": "application/json",
										"type": "text"
									}
								],
								"body": {
									"mode": "raw",
									"raw": "{\r\n    \"name\": \"Nuevo Nombre\",\r\n    \"email\": \"nuevo@email.com\",\r\n    \"birthDate\": \"1990-01-01T00:00:00\",\r\n    \"address\": {\r\n        \"street\": \"Nueva Calle\",\r\n        \"state\": \"Nuevo Estado\",\r\n        \"city\": \"Nueva Ciudad\",\r\n        \"country\": \"Nuevo País\",\r\n        \"zip\": \"12345\"\r\n    }\r\n}"
								},
								"url": {
									"raw": "http://localhost:8080/users/updateUsersById/999",
									"protocol": "http",
									"host": [
										"localhost"
									],
									"port": "8080",
									"path": [
										"users",
										"updateUsersById",
										"999"
									]
								}
							},
							"status": "Not Found",
							"code": 404,
							"_postman_previewlanguage": "plain",
							"header": [
								{
									"key": "Content-Length",
									"value": "0"
								},
								{
									"key": "Date",
									"value": "Wed, 16 Aug 2023 04:57:35 GMT"
								},
								{
									"key": "Keep-Alive",
									"value": "timeout=60"
								},
								{
									"key": "Connection",
									"value": "keep-alive"
								}
							],
							"cookie": [],
							"body": null
						}
					]
				},
				{
					"name": "http://localhost:8080/users/deleteUsersById/1",
					"request": {
						"method": "DELETE",
						"header": [],
						"url": {
							"raw": "http://localhost:8080/users/deleteUsersById/p",
							"protocol": "http",
							"host": [
								"localhost"
							],
							"port": "8080",
							"path": [
								"users",
								"deleteUsersById",
								"p"
							]
						}
					},
					"response": [
						{
							"name": "http://localhost:8080/users/deleteUsersById/2 Copy",
							"originalRequest": {
								"method": "DELETE",
								"header": [],
								"url": {
									"raw": "http://localhost:8080/users/deleteUsersById/p",
									"protocol": "http",
									"host": [
										"localhost"
									],
									"port": "8080",
									"path": [
										"users",
										"deleteUsersById",
										"p"
									]
								}
							},
							"status": "Bad Request",
							"code": 400,
							"_postman_previewlanguage": "json",
							"header": [
								{
									"key": "Content-Type",
									"value": "application/json"
								},
								{
									"key": "Transfer-Encoding",
									"value": "chunked"
								},
								{
									"key": "Date",
									"value": "Wed, 16 Aug 2023 04:58:23 GMT"
								},
								{
									"key": "Connection",
									"value": "close"
								}
							],
							"cookie": [],
							"body": "{\n    \"timestamp\": \"2023-08-16T04:58:23.347+0000\",\n    \"status\": 400,\n    \"error\": \"Bad Request\",\n    \"path\": \"/users/deleteUsersById/p\"\n}"
						}
					]
				},
				{
					"name": "http://localhost:8080/users/deleteUsersById/999 notFound",
					"request": {
						"method": "DELETE",
						"header": [],
						"url": {
							"raw": "http://localhost:8080/users/deleteUsersById/999",
							"protocol": "http",
							"host": [
								"localhost"
							],
							"port": "8080",
							"path": [
								"users",
								"deleteUsersById",
								"999"
							]
						}
					},
					"response": [
						{
							"name": "http://localhost:8080/users/deleteUsersById/1 Copy",
							"originalRequest": {
								"method": "DELETE",
								"header": [],
								"url": {
									"raw": "http://localhost:8080/users/deleteUsersById/999",
									"protocol": "http",
									"host": [
										"localhost"
									],
									"port": "8080",
									"path": [
										"users",
										"deleteUsersById",
										"999"
									]
								}
							},
							"status": "Not Found",
							"code": 404,
							"_postman_previewlanguage": "plain",
							"header": [
								{
									"key": "Content-Length",
									"value": "0"
								},
								{
									"key": "Date",
									"value": "Wed, 16 Aug 2023 05:05:20 GMT"
								},
								{
									"key": "Keep-Alive",
									"value": "timeout=60"
								},
								{
									"key": "Connection",
									"value": "keep-alive"
								}
							],
							"cookie": [],
							"body": null
						}
					]
				}
			]
		}
	]
}